%YAML 1.1
%TAG !u! tag:unity3d.com,2011:
--- !u!114 &11400000
MonoBehaviour:
  m_ObjectHideFlags: 0
  m_CorrespondingSourceObject: {fileID: 0}
  m_PrefabInternal: {fileID: 0}
  m_GameObject: {fileID: 0}
  m_Enabled: 1
  m_EditorHideFlags: 0
  m_Script: {fileID: 11500000, guid: 826f434445778244a9f1ab7272f25fc9, type: 3}
  m_Name: PlayerIdle
  m_EditorClassIdentifier: 
  Id: Idle
  Action:
    TypeName: Assets.Scripts.Common.Behaviour.Actions.Parallel
    Childs:
    - TypeName: Assets.Scripts.Game.Actions.ChangePlayerWeapon
      Childs: []
    - TypeName: Assets.Scripts.Game.Actions.TankDrive
      Childs: []
    - TypeName: Assets.Scripts.Common.Behaviour.Actions.Sequence
      Childs:
      - TypeName: Assets.Scripts.Game.Actions.DeathCheck
        Childs: []
      - TypeName: Assets.Scripts.Game.Actions.DestroyEntity
        Childs: []
