%YAML 1.1
%TAG !u! tag:unity3d.com,2011:
--- !u!114 &11400000
MonoBehaviour:
  m_ObjectHideFlags: 0
  m_CorrespondingSourceObject: {fileID: 0}
  m_PrefabInternal: {fileID: 0}
  m_GameObject: {fileID: 0}
  m_Enabled: 1
  m_EditorHideFlags: 0
  m_Script: {fileID: 11500000, guid: 4df8e033c855ca741947c18f8d4f37bb, type: 3}
  m_Name: Settings
  m_EditorClassIdentifier: 
  EntitiesConfig: {fileID: 11400000, guid: 0c321d5ff5cea374fb8eebb955a04eae, type: 2}
